src/cpu_v2/test.vcd
$date
	Fri Jun 13 11:58:26 2025
$end
$version
	Icarus Verilog
$end
$timescale
	1s
$end
$scope module top_test $end
$var wire 32 ! cycle [31:0] $end
$var reg 1 " clk $end
$var reg 11 # loc [10:0] $end
$var reg 1 $ rst $end
$var integer 32 % i [31:0] $end
$scope module dut $end
$var wire 1 " clk $end
$var wire 1 $ rst $end
$var wire 4 & wr_strobe [3:0] $end
$var wire 1 ' rstrb $end
$var wire 32 ( mem_wdata [31:0] $end
$var wire 32 ) mem_rdata [31:0] $end
$var wire 32 * cycle [31:0] $end
$var wire 32 + addr [31:0] $end
$scope module cpu0 $end
$var wire 32 , AND [31:0] $end
$var wire 1 - LOAD_sign $end
$var wire 32 . OR [31:0] $end
$var wire 1 / TAKE_BRANCH $end
$var wire 32 0 XOR [31:0] $end
$var wire 1 " clk $end
$var wire 1 ' mem_rstrb $end
$var wire 4 1 mem_wstrb [3:0] $end
$var wire 1 $ rst $end
$var wire 1 2 write_reg_en $end
$var wire 32 3 write_reg_data [31:0] $end
$var wire 32 4 shift_data_2 [31:0] $end
$var wire 5 5 rd [4:0] $end
$var wire 32 6 pcplusimm [31:0] $end
$var wire 32 7 pcplus4 [31:0] $end
$var wire 5 8 opcode [4:0] $end
$var wire 32 9 mem_wdata [31:0] $end
$var wire 32 : mem_rdata [31:0] $end
$var wire 1 ; mem_halfwordAccess $end
$var wire 1 < mem_byteAccess $end
$var wire 32 = mem_addr [31:0] $end
$var wire 1 > load_store_state_flag $end
$var wire 32 ? load_store_addr [31:0] $end
$var wire 32 @ load_data_tmp [31:0] $end
$var wire 1 A isSystype $end
$var wire 1 B isStype $end
$var wire 1 C isRtype $end
$var wire 1 D isLtype $end
$var wire 1 E isLUI $end
$var wire 1 F isJALR $end
$var wire 1 G isJAL $end
$var wire 1 H isItype $end
$var wire 1 I isBtype $end
$var wire 1 J isAUIPC $end
$var wire 7 K funct7 [6:0] $end
$var wire 3 L funct3 [2:0] $end
$var wire 32 M alu_result [31:0] $end
$var wire 32 N alu_in2 [31:0] $end
$var wire 32 O alu_in1 [31:0] $end
$var wire 32 P U_data [31:0] $end
$var wire 32 Q S_data [31:0] $end
$var wire 33 R SUB [32:0] $end
$var wire 4 S STORE_wmask [3:0] $end
$var wire 32 T SRL [31:0] $end
$var wire 32 U SRA [31:0] $end
$var wire 32 V SLL [31:0] $end
$var wire 1 W NEQUAL $end
$var wire 16 X LOAD_halfword [15:0] $end
$var wire 8 Y LOAD_byte [7:0] $end
$var wire 1 Z LESS_THAN_U $end
$var wire 1 [ LESS_THAN $end
$var wire 32 \ J_data [31:0] $end
$var wire 32 ] I_data [31:0] $end
$var wire 1 ^ GREATER_THAN_U $end
$var wire 1 _ GREATER_THAN $end
$var wire 1 ` EQUAL $end
$var wire 32 a B_data [31:0] $end
$var wire 32 b ADD [31:0] $end
$var parameter 32 c BYTE $end
$var parameter 32 d DECODE $end
$var parameter 32 e EXECUTE $end
$var parameter 32 f FETCH $end
$var parameter 32 g HLT $end
$var parameter 32 h RESET $end
$var parameter 32 i WAIT $end
$var parameter 32 j WAIT_LOADING $end
$var reg 32 k addr [31:0] $end
$var reg 32 l cycle [31:0] $end
$var reg 32 m data [31:0] $end
$var reg 32 n data_rs1 [31:0] $end
$var reg 32 o data_rs2 [31:0] $end
$var reg 4 p state [3:0] $end
$upscope $end
$scope module mem0 $end
$var wire 32 q addr [31:0] $end
$var wire 1 " clk $end
$var wire 32 r data_in [31:0] $end
$var wire 1 ' rd_strobe $end
$var wire 1 $ rst $end
$var wire 4 s wr_strobe [3:0] $end
$var wire 30 t mem_loc [29:0] $end
$var parameter 32 u MEM_SIZE $end
$var reg 32 v data_out [31:0] $end
$upscope $end
$upscope $end
$upscope $end
$enddefinitions $end
$comment Show the parameter values. $end
$dumpall
b10000000000 u
b110 j
b1 i
b0 h
b111 g
b10 f
b100 e
b11 d
b101 c
$end
#0
$dumpvars
bx v
b0 t
b0 s
bx r
b0 q
b0 p
bx o
bx n
bx m
b0 l
b0 k
bx b
bx0 a
x`
x_
x^
bx ]
bx0 \
x[
xZ
bx Y
bx X
xW
bx V
bx U
bx T
bx1 S
bx R
bx Q
bx000000000000 P
bx O
bx N
bx M
bx L
bx K
xJ
xI
xH
xG
xF
xE
xD
xC
xB
xA
bx @
b0 ?
0>
b0 =
x<
x;
bx :
bx 9
bx 8
b100 7
bx 6
bx 5
bx 4
bx 3
02
b0 1
bx 0
x/
bx .
x-
bx ,
b0 +
b0 *
bx )
bx (
0'
b0 &
bx %
1$
b1111101000 #
0"
b0 !
$end
#5
b0 3
0-
b0 @
b0 ,
b0 Y
b0 N
b0 4
b0 6
b1 S
b0 X
0C
0H
0I
0A
0B
1D
0G
0F
0E
0J
b0 8
b0 5
b0 L
b0 K
b0 ]
b0 a
b0 Q
b0 \
b0 P
1<
0;
b0 m
b0 )
b0 :
b0 v
1"
#10
0"
#15
1"
#20
0"
#25
1"
#30
0"
#35
1"
#40
0"
#45
1"
#50
0"
0$
#55
1'
b1 !
b1 *
b1 l
b1 p
1"
#60
0"
#65
b11111111111111111111111110010011 3
1-
b11111111111111111111111110010011 @
b10010011 Y
b10010011 X
0'
b10 p
b10 !
b10 *
b10 l
b1000000000000000000000010010011 )
b1000000000000000000000010010011 :
b1000000000000000000000010010011 v
1"
#70
0"
#75
b0x0000000000 ,
bx1xxxxxxxxxx .
bx 3
b10000000000 N
1H
0D
b100 8
b1 5
b100000 K
b10000000000 ]
b110000000000 a
b10000000001 Q
b10000000000 \
b1000000000000000000000000000000 P
b11 !
b11 *
b11 l
b11 p
b1000000000000000000000010010011 m
1"
#80
0"
#85
0/
b10000000000 3
0_
1[
12
b10000000000 M
b0 (
b0 9
b0 r
1W
0`
0^
1Z
b0 ,
b10000000000 .
b10000000000 0
b100 p
b0 o
b10000000000 b
b111111111111111111111110000000000 R
b0 V
b0 T
b0 U
b0 O
b0 n
b100 !
b100 *
b100 l
1"
#90
0"
#95
02
b1 t
1'
b100 +
b100 =
b100 q
b101 !
b101 *
b101 l
b1 p
b1000 7
b100 6
b100 k
1"
#100
0"
#105
0-
b10011 @
b10011 Y
b1001000100010011 X
0'
b10 p
b110 !
b110 *
b110 l
b110000001001000100010011 )
b110000001001000100010011 :
b110000001001000100010011 v
1"
#110
0"
#115
1/
b1100 4
b0 3
b0 M
b111111111111111111111111111110100 R
b1100 .
b1100 0
b1100 b
b1100 N
1-
b11111111111111111001000100010011 @
b11 S
b10 5
b1 L
b0 K
b1100 ]
b10 a
b10 Q
b1001000000001100 \
b110000001001000000000000 P
0<
1;
b111 !
b111 *
b111 l
b11 p
b110000001001000100010011 m
1"
#120
0"
#125
b10000000000000000000000 3
b10000000000000000000000 M
12
1_
0[
bx (
bx 9
bx r
1^
0Z
b10000001100 .
b10000001100 0
b100 p
bx o
b10000001100 b
b1111110100 R
b10000000000000000000000 V
b10000000000 O
b10000000000 n
b1000 !
b1000 *
b1000 l
1"
#130
0"
#135
02
b10 t
1'
b1000 +
b1000 =
b1000 q
b1001 !
b1001 *
b1001 l
b1 p
b1100 7
b1000 6
b1000 k
1"
#140
0"
#145
0-
b10110111 Y
b110110111 @
b110110111 X
0'
b10 p
b1010 !
b1010 *
b1010 l
b10000000000000110110111 )
b10000000000000110110111 :
b10000000000000110110111 v
1"
#150
0"
#155
b0 M
0/
b1111111101 R
b10000000011 .
b10000000011 0
b10000000000 V
b10000000000 T
b10000000000 U
b0 4
b10000000000000000000000 3
b10000000011 b
b11 N
1-
b11111111111111111111111110110111 @
b1 S
0H
1E
b1101 8
b11 5
b0 L
b100 ]
b100000000010 a
b11 Q
b100 \
b10000000000000000000000 P
1<
0;
b1011 !
b1011 *
b1011 l
b11 p
b10000000000000110110111 m
1"
#160
0"
#165
12
0_
1[
0^
1Z
b11 .
b11 0
b100 p
b11 b
b111111111111111111111111111111101 R
b0 V
b0 T
b0 U
b0 O
b0 n
b1100 !
b1100 *
b1100 l
1"
#170
0"
#175
02
b11 t
1'
b1100 +
b1100 =
b1100 q
b1101 !
b1101 *
b1101 l
b1 p
b10000 7
b1100 6
b1100 k
1"
#180
0"
#185
0-
b100011 @
b100011 Y
b10010000100011 X
0'
b10 p
b1110 !
b1110 *
b1110 l
b111110001100000010010000100011 )
b111110001100000010010000100011 :
b111110001100000010010000100011 v
1"
#190
0"
#195
b1111101000 M
b0 3
b111111111111111111111110000011000 R
b1111101000 .
b1111101000 0
b1111101000 b
b1111101000 N
b111110001100000010010000100011 @
b1111 S
1B
0E
b1000 8
b1000 5
b10 L
b11111 K
b1111100011 ]
b1111101000 a
b1111101000 Q
b10101111100010 \
b111110001100000010000000000000 P
0<
b1111 !
b1111 *
b1111 l
b11 p
b111110001100000010010000100011 m
1"
#200
0"
#205
b10000000000000000000000 (
b10000000000000000000000 9
b10000000000000000000000 r
b100 p
b10000000000000000000000 o
b10000 !
b10000 *
b10000 l
1"
#210
0"
#215
b1111101000 ?
b11111010 t
b1111101000 +
b1111101000 =
b1111101000 q
b10001 !
b10001 *
b10001 l
1>
b101 p
b10100 7
b10000 6
b10000 k
1"
#220
0"
#225
b1111 &
b1111 1
b1111 s
0>
b110 p
b10010 !
b10010 *
b10010 l
1"
#230
0"
#235
b100 t
b10000 +
b10000 =
b10000 q
b0 ?
b0 &
b0 1
b0 s
1'
b10011 !
b10011 *
b10011 l
b1 p
1"
#240
0"
#245
b11 Y
b10001000000011 X
b111110100000000010001000000011 @
0'
b10 p
b10100 !
b10100 *
b10100 l
b111110100000000010001000000011 )
b111110100000000010001000000011 :
b111110100000000010001000000011 v
1"
#250
0"
#255
b1111101000 M
b111111111111111111111110000011000 R
b1111101000 .
b1111101000 0
b111110100000000010001000000011 3
b1111101000 b
b1111101000 N
0B
1D
b0 8
b100 5
b1111101000 ]
b1111100100 a
b1111100100 Q
b10001111101000 \
b111110100000000010000000000000 P
b10101 !
b10101 *
b10101 l
b11 p
b111110100000000010001000000011 m
1"
#260
0"
#265
bx (
bx 9
bx r
b100 p
bx o
b10110 !
b10110 *
b10110 l
1"
#270
0"
#275
1'
b1111101000 ?
b11111010 t
b1111101000 +
b1111101000 =
b1111101000 q
b10111 !
b10111 *
b10111 l
1>
b101 p
b11000 7
b10100 6
b10100 k
1"
#280
0"
#285
b0 Y
b10000000000000000000000 3
0'
12
b0 X
b10000000000000000000000 @
0>
b110 p
b11000 !
b11000 *
b11000 l
b10000000000000000000000 )
b10000000000000000000000 :
b10000000000000000000000 v
1"
#290
0"
#295
b101 t
b10100 +
b10100 =
b10100 q
b0 ?
02
1'
b11001 !
b11001 *
b11001 l
b1 p
1"
#300
0"
#305
b1110011 Y
b100000000000001110011 3
b1110011 X
b100000000000001110011 @
0'
b10 p
b11010 !
b11010 *
b11010 l
b100000000000001110011 )
b100000000000001110011 :
b100000000000001110011 v
1"
#310
0"
#315
b0 M
1/
1_
0[
0W
1`
1^
0Z
b0 R
b0 .
b0 0
b0 3
b0 b
b0 N
b1110011 @
b1 S
1A
0D
b11100 8
b0 5
b0 L
b0 K
b1 ]
b0 a
b0 Q
b100000000000 \
b100000000000000000000 P
1<
b11011 !
b11011 *
b11011 l
b11 p
b100000000000001110011 m
1"
#320
0"
#325
b10000000000 (
b10000000000 9
b10000000000 r
b111 p
b10000000000 o
b11100 !
b11100 *
b11100 l
1"
